<?xml version="1.0" encoding="UTF-8" standalone="no"?>
<svg
   xmlns:dc="http://purl.org/dc/elements/1.1/"
   xmlns:cc="http://creativecommons.org/ns#"
   xmlns:rdf="http://www.w3.org/1999/02/22-rdf-syntax-ns#"
   xmlns:svg="http://www.w3.org/2000/svg"
   xmlns="http://www.w3.org/2000/svg"
   width="113.00005"
   height="113"
   viewBox="0 0 29.897928 29.897916"
   version="1.1"
   id="svg8">
  <defs
     id="defs2" />
  <metadata
     id="metadata5">
    <rdf:RDF>
      <cc:Work
         rdf:about="">
        <dc:format>image/svg+xml</dc:format>
        <dc:type
           rdf:resource="http://purl.org/dc/dcmitype/StillImage" />
        <dc:title></dc:title>
      </cc:Work>
    </rdf:RDF>
  </metadata>
  <g
     transform="translate(-124.88333,-157.82917)"
     style="display:inline"
     id="g969">
    <rect
       y="174.49792"
       x="151.87083"
       height="2.3812475"
       width="2.3812387"
       id="rect867-4"
       style="color:#000000;display:inline;overflow:visible;visibility:visible;opacity:1;fill:#e2681d;fill-opacity:1;fill-rule:nonzero;stroke:none;stroke-width:0;stroke-linecap:square;stroke-linejoin:miter;stroke-miterlimit:4;stroke-dasharray:none;stroke-dashoffset:0;stroke-opacity:1;marker:none;enable-background:accumulate" />
    <rect
       y="158.09375"
       x="147.10834"
       height="7.4083309"
       width="7.4083347"
       id="rect867-3"
       style="color:#000000;display:inline;overflow:visible;visibility:visible;opacity:1;fill:#e2681d;fill-opacity:1;fill-rule:nonzero;stroke:none;stroke-width:0;stroke-linecap:square;stroke-linejoin:miter;stroke-miterlimit:4;stroke-dasharray:none;stroke-dashoffset:0;stroke-opacity:1;marker:none;enable-background:accumulate" />
    <rect
       y="180.58333"
       x="151.34166"
       height="1.0583383"
       width="1.0583404"
       id="rect893-3"
       style="color:#000000;display:inline;overflow:visible;visibility:visible;opacity:1;fill:#f9a61a;fill-opacity:1;fill-rule:nonzero;stroke:none;stroke-width:1.058;stroke-linecap:square;stroke-linejoin:miter;stroke-miterlimit:4;stroke-dasharray:none;stroke-dashoffset:0;stroke-opacity:1;marker:none;enable-background:accumulate" />
    <rect
       y="159.41666"
       x="139.7"
       height="2.1166685"
       width="2.1166697"
       id="rect867-3-2"
       style="color:#000000;display:inline;overflow:visible;visibility:visible;opacity:1;fill:#e2681d;fill-opacity:1;fill-rule:nonzero;stroke:none;stroke-width:0;stroke-linecap:square;stroke-linejoin:miter;stroke-miterlimit:4;stroke-dasharray:none;stroke-dashoffset:0;stroke-opacity:1;marker:none;enable-background:accumulate" />
    <rect
       y="177.14375"
       x="150.28333"
       height="1.5875044"
       width="1.587504"
       id="rect867"
       style="color:#000000;display:inline;overflow:visible;visibility:visible;opacity:1;fill:#e2681d;fill-opacity:1;fill-rule:nonzero;stroke:none;stroke-width:0;stroke-linecap:square;stroke-linejoin:miter;stroke-miterlimit:4;stroke-dasharray:none;stroke-dashoffset:0;stroke-opacity:1;marker:none;enable-background:accumulate" />
    <rect
       y="166.6927"
       x="150.15105"
       height="3.9687631"
       width="3.9687631"
       id="rect893"
       style="color:#000000;display:inline;overflow:visible;visibility:visible;opacity:1;fill:#f9a61a;fill-opacity:1;fill-rule:nonzero;stroke:none;stroke-width:1.058;stroke-linecap:square;stroke-linejoin:miter;stroke-miterlimit:4;stroke-dasharray:none;stroke-dashoffset:0;stroke-opacity:1;marker:none;enable-background:accumulate" />
    <rect
       y="162.59167"
       x="125.14791"
       height="24.870825"
       width="24.870831"
       id="rect967"
       style="color:#000000;display:inline;overflow:visible;visibility:visible;opacity:1;fill:#b1063a;fill-opacity:1;fill-rule:nonzero;stroke:none;stroke-width:1.32292;stroke-linecap:square;stroke-linejoin:miter;stroke-miterlimit:4;stroke-dasharray:none;stroke-dashoffset:0;stroke-opacity:1;marker:none;enable-background:accumulate" />
    <rect
       y="159.01979"
       x="137.71562"
       height="0.79374814"
       width="0.79374838"
       id="rect893-9"
       style="color:#000000;display:inline;overflow:visible;visibility:visible;opacity:1;fill:#f9a61a;fill-opacity:1;fill-rule:nonzero;stroke:none;stroke-width:1.058;stroke-linecap:square;stroke-linejoin:miter;stroke-miterlimit:4;stroke-dasharray:none;stroke-dashoffset:0;stroke-opacity:1;marker:none;enable-background:accumulate" />
    <rect
       y="171.52135"
       x="150.74635"
       height="1.9843776"
       width="1.984378"
       id="rect893-9-5"
       style="color:#000000;display:inline;overflow:visible;visibility:visible;opacity:1;fill:#f9a61a;fill-opacity:1;fill-rule:nonzero;stroke:none;stroke-width:1.058;stroke-linecap:square;stroke-linejoin:miter;stroke-miterlimit:4;stroke-dasharray:none;stroke-dashoffset:0;stroke-opacity:1;marker:none;enable-background:accumulate" />
    <rect
       y="158.35834"
       x="142.875"
       height="3.1749902"
       width="3.1749907"
       id="rect893-9-5-9"
       style="color:#000000;display:inline;overflow:visible;visibility:visible;opacity:1;fill:#f9a61a;fill-opacity:1;fill-rule:nonzero;stroke:none;stroke-width:1.058;stroke-linecap:square;stroke-linejoin:miter;stroke-miterlimit:4;stroke-dasharray:none;stroke-dashoffset:0;stroke-opacity:1;marker:none;enable-background:accumulate" />
    <rect
       y="160.21043"
       x="135.99586"
       height="1.5874747"
       width="1.5874748"
       id="rect893-9-4"
       style="color:#000000;display:inline;overflow:visible;visibility:visible;opacity:1;fill:#f9a61a;fill-opacity:1;fill-rule:nonzero;stroke:none;stroke-width:1.058;stroke-linecap:square;stroke-linejoin:miter;stroke-miterlimit:4;stroke-dasharray:none;stroke-dashoffset:0;stroke-opacity:1;marker:none;enable-background:accumulate" />
    <rect
       y="160.73958"
       x="133.87917"
       height="1.3229203"
       width="1.3229141"
       id="rect867-3-2-9"
       style="color:#000000;display:inline;overflow:visible;visibility:visible;opacity:1;fill:#e2681d;fill-opacity:1;fill-rule:nonzero;stroke:none;stroke-width:0;stroke-linecap:square;stroke-linejoin:miter;stroke-miterlimit:4;stroke-dasharray:none;stroke-dashoffset:0;stroke-opacity:1;marker:none;enable-background:accumulate" />
  </g>
  <g
     style="display:none"
     id="layer3"
     transform="translate(-124.88333,-157.82917)">
    <text
       id="text4800"
       y="173.7207"
       x="136.91876"
       style="font-style:normal;font-variant:normal;font-weight:normal;font-stretch:normal;font-size:2.82222px;line-height:125%;font-family:Sans;-inkscape-font-specification:'Sans, Normal';font-variant-ligatures:normal;font-variant-caps:normal;font-variant-numeric:normal;font-feature-settings:normal;text-align:center;letter-spacing:0px;word-spacing:0px;writing-mode:lr-tb;text-anchor:middle;display:inline;fill:#000000;fill-opacity:1;stroke:none;stroke-width:0.264583px;stroke-linecap:butt;stroke-linejoin:miter;stroke-opacity:1"
       xml:space="preserve"><tspan
         style="font-style:normal;font-variant:normal;font-weight:bold;font-stretch:normal;font-size:12.7px;line-height:90%;font-family:'DejaVu Sans Mono';-inkscape-font-specification:'DejaVu Sans Mono Bold';text-align:center;letter-spacing:0px;word-spacing:0px;text-anchor:middle;fill:#ffffff;fill-opacity:1;stroke:#ffffff;stroke-width:0.264583px;stroke-opacity:1"
         y="173.7207"
         x="136.91876"
         id="tspan4682"><tspan
           rotate="0 0 0 0"
           id="tspan4680"
           style="font-style:normal;font-variant:normal;font-weight:bold;font-stretch:normal;font-size:12.7px;line-height:90%;font-family:'DejaVu Sans Mono';-inkscape-font-specification:'DejaVu Sans Mono Bold';text-align:center;letter-spacing:0px;word-spacing:0px;text-anchor:middle;fill:#ffffff;fill-opacity:1;stroke:#ffffff;stroke-width:0.264583px;stroke-opacity:1"
           dy="0">IoT</tspan></tspan><tspan
         style="font-style:normal;font-variant:normal;font-weight:bold;font-stretch:normal;font-size:12.7px;line-height:90%;font-family:'DejaVu Sans Mono';-inkscape-font-specification:'DejaVu Sans Mono Bold';text-align:center;letter-spacing:0px;word-spacing:0px;text-anchor:middle;fill:#ffffff;fill-opacity:1;stroke:#ffffff;stroke-width:0.264583px;stroke-opacity:1"
         y="185.1507"
         x="136.91876"
         rotate="0 0 0 0"
         id="tspan4688"
         dx="0">lab</tspan></text>
  </g>
  <g
     style="display:inline"
     id="g856"
     transform="translate(-124.88333,-157.82917)">
    <g
       aria-label="IoT
lab"
       id="text854"
       style="font-style:normal;font-variant:normal;font-weight:normal;font-stretch:normal;font-size:2.82222px;line-height:125%;font-family:Sans;-inkscape-font-specification:'Sans, Normal';font-variant-ligatures:normal;font-variant-caps:normal;font-variant-numeric:normal;font-feature-settings:normal;text-align:center;letter-spacing:0px;word-spacing:0px;writing-mode:lr-tb;text-anchor:middle;display:inline;fill:#000000;fill-opacity:1;stroke:none;stroke-width:0.264583px;stroke-linecap:butt;stroke-linejoin:miter;stroke-opacity:1">
      <path
         d="m 126.5163,166.07466 v -1.61231 h 5.51284 v 1.61231 h -1.84175 v 6.03374 h 1.84175 v 1.6123 h -5.51284 v -1.6123 h 1.84174 v -6.03374 z"
         style="font-style:normal;font-variant:normal;font-weight:bold;font-stretch:normal;font-size:12.7px;line-height:90%;font-family:'DejaVu Sans Mono';-inkscape-font-specification:'DejaVu Sans Mono Bold';text-align:center;letter-spacing:0px;word-spacing:0px;text-anchor:middle;fill:#ffffff;fill-opacity:1;stroke:#ffffff;stroke-width:0.264583px;stroke-opacity:1"
         id="path858" />
      <path
         d="m 136.91566,168.08384 q -0.65112,0 -1.02319,0.57671 -0.37207,0.5705 -0.37207,1.5937 0,1.02319 0.37207,1.5999 0.37207,0.57051 1.02319,0.57051 0.65733,0 1.0294,-0.57051 0.37207,-0.57671 0.37207,-1.5999 0,-1.0232 -0.37207,-1.5937 -0.37207,-0.57671 -1.0294,-0.57671 z m -3.21221,2.17041 q 0,-1.68052 0.86817,-2.6603 0.87436,-0.98599 2.34404,-0.98599 1.47588,0 2.34404,0.98599 0.87437,0.97978 0.87437,2.6603 0,1.68052 -0.87437,2.6665 -0.86816,0.97979 -2.34404,0.97979 -1.46968,0 -2.34404,-0.97979 -0.86817,-0.98598 -0.86817,-2.6665 z"
         style="font-style:normal;font-variant:normal;font-weight:bold;font-stretch:normal;font-size:12.7px;line-height:90%;font-family:'DejaVu Sans Mono';-inkscape-font-specification:'DejaVu Sans Mono Bold';text-align:center;letter-spacing:0px;word-spacing:0px;text-anchor:middle;fill:#ffffff;fill-opacity:1;stroke:#ffffff;stroke-width:0.264583px;stroke-opacity:1"
         id="path860" />
      <path
         d="m 145.47948,173.7207 h -1.82935 v -7.65844 h -2.35024 v -1.59991 h 6.52983 v 1.59991 h -2.35024 z"
         style="font-style:normal;font-variant:normal;font-weight:bold;font-stretch:normal;font-size:12.7px;line-height:90%;font-family:'DejaVu Sans Mono';-inkscape-font-specification:'DejaVu Sans Mono Bold';text-align:center;letter-spacing:0px;word-spacing:0px;text-anchor:middle;fill:#ffffff;fill-opacity:1;stroke:#ffffff;stroke-width:0.264583px;stroke-opacity:1"
         id="path862" />
      <path
         d="m 127.84955,182.25476 v -5.35782 h -1.84175 v -1.39526 h 3.65869 v 6.75308 q 0,0.81855 0.25425,1.15961 0.25425,0.34107 0.86196,0.34107 h 1.45108 v 1.39526 h -1.95957 q -1.29605,0 -1.86035,-0.66972 -0.56431,-0.66973 -0.56431,-2.22622 z"
         style="font-style:normal;font-variant:normal;font-weight:bold;font-stretch:normal;font-size:12.7px;line-height:90%;font-family:'DejaVu Sans Mono';-inkscape-font-specification:'DejaVu Sans Mono Bold';text-align:center;letter-spacing:0px;word-spacing:0px;text-anchor:middle;fill:#ffffff;fill-opacity:1;stroke:#ffffff;stroke-width:0.264583px;stroke-opacity:1"
         id="path864" />
      <path
         d="m 137.43656,181.88889 q -1.01699,0 -1.42007,0.26045 -0.40307,0.26044 -0.40307,0.89296 0,0.47129 0.27905,0.75035 0.27905,0.27905 0.75654,0.27905 0.71934,0 1.11621,-0.5395 0.39688,-0.54571 0.39688,-1.51929 v -0.12402 z m 2.53008,-0.70074 v 3.96255 h -1.80454 v -0.77514 q -0.32867,0.45888 -0.84336,0.70693 -0.5147,0.24805 -1.13482,0.24805 -1.18442,0 -1.84795,-0.62632 -0.65732,-0.62632 -0.65732,-1.74873 0,-1.21543 0.78755,-1.79214 0.78755,-0.58291 2.43706,-0.58291 h 1.25884 v -0.30386 q 0,-0.44028 -0.32246,-0.66352 -0.31626,-0.22945 -0.93638,-0.22945 -0.65112,0 -1.26504,0.16743 -0.60771,0.16123 -1.27124,0.5209 v -1.55029 q 0.60151,-0.24805 1.22163,-0.36587 0.62012,-0.11782 1.31465,-0.11782 1.69292,0 2.37505,0.68833 0.68833,0.68833 0.68833,2.46186 z"
         style="font-style:normal;font-variant:normal;font-weight:bold;font-stretch:normal;font-size:12.7px;line-height:90%;font-family:'DejaVu Sans Mono';-inkscape-font-specification:'DejaVu Sans Mono Bold';text-align:center;letter-spacing:0px;word-spacing:0px;text-anchor:middle;fill:#ffffff;fill-opacity:1;stroke:#ffffff;stroke-width:0.264583px;stroke-opacity:1"
         id="path866" />
      <path
         d="m 146.01278,181.69665 q 0,-1.00459 -0.33486,-1.5751 -0.33487,-0.57051 -0.92398,-0.57051 -0.58911,0 -0.93017,0.57051 -0.34107,0.57051 -0.34107,1.5751 0,1.00459 0.34107,1.5751 0.34106,0.57051 0.93017,0.57051 0.58911,0 0.92398,-0.57051 0.33486,-0.57051 0.33486,-1.5751 z m -2.53008,-2.50527 q 0.33487,-0.57671 0.77515,-0.86197 0.44648,-0.29145 1.00459,-0.29145 1.23403,0 1.89756,0.94258 0.66972,0.94257 0.66972,2.70371 0,1.73633 -0.65732,2.69131 -0.65732,0.95498 -1.84795,0.95498 -0.62632,0 -1.09141,-0.30386 -0.46508,-0.30386 -0.75034,-0.90537 v 1.02939 h -1.81074 v -9.64902 h 1.81074 z"
         style="font-style:normal;font-variant:normal;font-weight:bold;font-stretch:normal;font-size:12.7px;line-height:90%;font-family:'DejaVu Sans Mono';-inkscape-font-specification:'DejaVu Sans Mono Bold';text-align:center;letter-spacing:0px;word-spacing:0px;text-anchor:middle;fill:#ffffff;fill-opacity:1;stroke:#ffffff;stroke-width:0.264583px;stroke-opacity:1"
         id="path868" />
    </g>
  </g>
</svg>
