digraph G {
  charset = "utf-8"
  rankdir = LR
  forcelabels = true
  splines = line

  node [shape=point width=0 label=""]
  comm1
  comm2

  node [shape=box width=""]
  sut [label="application under consideration" ordering=out]

  node [peripheries=2]
  hw [label="hardware"]
  sw1 [label="directly interacting\nsoftware"]
  sw2 [label="indirectly interacting\nsoftware"
       color=grey60
       fontcolor=grey60]

  node [shape=ellipse style=dashed constraint=false peripheries=1]
  sfi [label="software fault injection"]

  hw -> comm1 [dir=back]
  comm1-> sut
  sut -> comm2 [dir=back]
  comm2 -> sw1
  sw1 -> sw2 [dir=both color=grey60 fontcolor=grey60]

  // dummy for placement
  hw -> sfi [style=invis weight=0]

  edge [style=dashed constraint=false arrowhead=open minlen=2]
  sfi -> hw
  sfi -> comm1
  sfi -> sut
  sfi -> comm2
  sfi -> sw1
}
