digraph G {
  charset = "utf-8"
  rankdir = LR
  forcelabels = true
  compound = true
  splines = line

  ext [label="interacting\nsoftware" shape=box color=grey60 fontcolor=grey60]

  subgraph cluster_outer {

    label = "application under consideration"

    src [label="source\ncode" shape=note]

    subgraph cluster_inner {
      label = "in execution"
      node [shape=box]
      bin [label="binary code"]
      data [label="data"]
      bin -> data [dir=both]
    }

    node [shape=ellipse]
    comp [label="compiling,\nlinking, ..."]
    comm [label="system calls,\nIPC, RPC, ..."]

  }

  src -> comp -> bin
  data -> comm [label="" ltail=cluster_inner dir=both]
  comm -> ext [color=grey60 dir=both]

  node [style=dashed constraint=false]
  sfi [label="software fault injection"]

  // dummy for placement
  comp -> sfi [style=invis weight=0]

  edge [style=dashed constraint=false arrowhead=open minlen=2]
  sfi -> src [headport=se]
  sfi -> comp
  sfi -> bin
  sfi -> data
  sfi -> comm

}
