<?xml version="1.0" encoding="UTF-8" standalone="no"?>
<svg
   xmlns:osb="http://www.openswatchbook.org/uri/2009/osb"
   xmlns:dc="http://purl.org/dc/elements/1.1/"
   xmlns:cc="http://creativecommons.org/ns#"
   xmlns:rdf="http://www.w3.org/1999/02/22-rdf-syntax-ns#"
   xmlns:svg="http://www.w3.org/2000/svg"
   xmlns="http://www.w3.org/2000/svg"
   xmlns:xlink="http://www.w3.org/1999/xlink"
   id="svg997"
   version="1.1"
   viewBox="0 0 560.01434 173.88039"
   height="173.88039mm"
   width="560.01434mm">
  <defs
     id="defs991">
    <linearGradient
       osb:paint="solid"
       id="linearGradient9593">
      <stop
         id="stop9591"
         offset="0"
         style="stop-color:#000000;stop-opacity:1;" />
    </linearGradient>
    <linearGradient
       gradientTransform="matrix(1193366.6,0,0,1988944.2,3738264800,-5585379700)"
       osb:paint="solid"
       id="linearGradient4856">
      <stop
         id="stop4854"
         offset="0"
         style="stop-color:#007b95;stop-opacity:1;" />
    </linearGradient>
    <linearGradient
       id="linearGradient9605">
      <stop
         id="stop9603"
         offset="0"
         style="stop-color:#c65301;stop-opacity:1;" />
    </linearGradient>
    <clipPath
       clipPathUnits="userSpaceOnUse"
       id="presentation_clip_path">
      <rect
         id="rect2"
         height="23887"
         width="76937"
         y="32820"
         x="3496" />
    </clipPath>
    <linearGradient
       gradientUnits="userSpaceOnUse"
       y2="39567.5"
       x2="23064"
       y1="39567.5"
       x1="10175"
       id="linearGradient9607"
       xlink:href="#linearGradient9605" />
    <linearGradient
       y2="1604.3903"
       x2="1527.1807"
       y1="1604.3903"
       x1="858.72363"
       gradientUnits="userSpaceOnUse"
       id="linearGradient9597"
       xlink:href="#linearGradient9593" />
  </defs>
  <metadata
     id="metadata994">
    <rdf:RDF>
      <cc:Work
         rdf:about="">
        <dc:format>image/svg+xml</dc:format>
        <dc:type
           rdf:resource="http://purl.org/dc/dcmitype/StillImage" />
        <dc:title></dc:title>
      </cc:Work>
    </rdf:RDF>
  </metadata>
  <g
     transform="translate(183.55007,-64.874969)"
     id="layer1">
    <g
       transform="matrix(0.00727868,0,0,0.00727868,-208.98906,-174.00403)"
       id="g213"
       class="com.sun.star.drawing.CustomShape"
       style="">
      <g
         id="id3">
        <rect
           id="rect198"
           height="9629"
           width="33981"
           y="47079"
           x="27251"
           class="BoundingBox"
           style="fill:none;stroke:none" />
        <path
           id="path200"
           d="M 44241,56671 H 27287 v -9556 h 33908 v 9556 z"
           style="fill:#f2f2f2;stroke:none" />
        <path
           id="path202"
           d="M 44241,56671 H 27287 v -9556 h 33908 v 9556 z"
           style="fill:none;stroke:#000000;stroke-width:71;stroke-linejoin:round" />
        <text
           id="text210"
           class="TextShape">
          <tspan
             id="tspan208"
             font-weight="700"
             font-size="1411px"
             class="TextParagraph"
             style="font-style:normal;font-variant:normal;font-weight:bold;font-stretch:normal;font-size:1454.01757812px;font-family:Ubuntu;-inkscape-font-specification:'Ubuntu, Bold';font-variant-ligatures:normal;font-variant-caps:normal;font-variant-numeric:normal;font-feature-settings:normal;text-align:start;writing-mode:lr-tb;text-anchor:start;fill:url(#linearGradient9593)">
            <tspan
               style="font-style:normal;font-variant:normal;font-weight:bold;font-stretch:normal;font-size:1454.01757812px;font-family:Ubuntu;-inkscape-font-specification:'Ubuntu, Bold';font-variant-ligatures:normal;font-variant-caps:normal;font-variant-numeric:normal;font-feature-settings:normal;text-align:start;writing-mode:lr-tb;text-anchor:start;fill:url(#linearGradient9593);stroke:none"
               id="tspan206"
               y="56265"
               x="40408"
               class="TextPosition">Field Test</tspan>
          </tspan>
        </text>
      </g>
    </g>
    <g
       transform="matrix(0.00727868,0,0,0.00727868,-208.98906,-174.00403)"
       id="g230"
       class="com.sun.star.drawing.CustomShape"
       style="">
      <g
         id="id4">
        <rect
           id="rect215"
           height="9629"
           width="33981"
           y="44776"
           x="25025"
           class="BoundingBox"
           style="fill:none;stroke:none" />
        <path
           id="path217"
           d="M 42015,54368 H 25061 v -9556 h 33908 v 9556 z"
           style="fill:#f2f2f2;stroke:none" />
        <path
           id="path219"
           d="M 42015,54368 H 25061 v -9556 h 33908 v 9556 z"
           style="fill:none;stroke:#000000;stroke-width:71;stroke-linejoin:round" />
        <text
           id="text227"
           class="TextShape">
          <tspan
             id="tspan225"
             font-weight="700"
             font-size="1411px"
             class="TextParagraph"
             style="font-style:normal;font-variant:normal;font-weight:bold;font-stretch:normal;font-size:1454.01757812px;font-family:Ubuntu;-inkscape-font-specification:'Ubuntu, Bold';font-variant-ligatures:normal;font-variant-caps:normal;font-variant-numeric:normal;font-feature-settings:normal;text-align:start;writing-mode:lr-tb;text-anchor:start;fill:url(#linearGradient9593)">
            <tspan
               style="font-style:normal;font-variant:normal;font-weight:bold;font-stretch:normal;font-size:1454.01757812px;font-family:Ubuntu;-inkscape-font-specification:'Ubuntu, Bold';font-variant-ligatures:normal;font-variant-caps:normal;font-variant-numeric:normal;font-feature-settings:normal;text-align:start;writing-mode:lr-tb;text-anchor:start;fill:url(#linearGradient9593);stroke:none"
               id="tspan223"
               y="53962"
               x="38587"
               class="TextPosition">Test Bed</tspan>
          </tspan>
        </text>
      </g>
    </g>
    <g
       transform="matrix(0.00727868,0,0,0.00727868,-208.98906,-174.00403)"
       id="g239"
       class="com.sun.star.drawing.CustomShape"
       style="">
      <g
         id="id5">
        <rect
           id="rect232"
           height="6947"
           width="40713"
           y="32819"
           x="21179"
           class="BoundingBox"
           style="fill:none;stroke:none" />
        <path
           id="path234"
           d="M 41535,39729 H 21215 v -6874 h 40640 v 6874 z"
           style="fill:#f2f2f2;stroke:none" />
        <path
           id="path236"
           d="M 41535,39729 H 21215 v -6874 h 40640 v 6874 z"
           style="fill:none;stroke:#000000;stroke-width:71;stroke-linejoin:round" />
      </g>
    </g>
    <g
       transform="matrix(0.00727868,0,0,0.00727868,-208.98906,-174.00403)"
       id="g260"
       class="com.sun.star.drawing.CustomShape"
       style="">
      <g
         id="id6">
        <rect
           id="rect241"
           height="4768"
           width="16404"
           y="33907"
           x="43639"
           class="BoundingBox"
           style="fill:none;stroke:none" />
        <path
           id="path243"
           d="m 43676,36290 v 0 l 3,-59 7,-60 14,-59 18,-59 23,-59 29,-59 34,-59 39,-58 44,-58 50,-58 54,-58 59,-57 65,-56 69,-56 74,-56 80,-54 84,-55 88,-54 94,-53 98,-52 102,-52 108,-50 111,-50 116,-50 121,-48 124,-48 129,-46 132,-46 137,-44 141,-44 144,-42 148,-42 152,-40 155,-40 159,-38 162,-37 165,-36 168,-34 171,-34 174,-32 177,-30 180,-30 182,-28 185,-27 186,-26 189,-24 191,-22 194,-22 194,-20 197,-18 198,-17 200,-16 200,-14 203,-13 203,-11 204,-10 205,-8 205,-7 206,-5 206,-4 207,-2 207,-1 v 0 l 207,1 206,2 207,4 206,5 205,7 205,8 204,10 203,11 202,13 201,14 200,16 198,17 197,18 194,20 193,21 192,23 189,24 186,26 185,27 182,28 180,29 176,31 175,32 171,34 168,34 165,36 162,37 159,38 155,39 152,41 148,41 144,43 141,44 137,44 132,46 129,46 124,48 121,48 116,49 111,51 108,50 102,52 98,52 94,53 88,54 84,54 80,55 74,56 69,56 65,56 59,57 54,58 50,57 44,59 39,58 34,59 29,58 23,60 18,59 14,59 7,60 3,59 v 0 l -3,59 -7,60 -14,59 -18,59 -23,59 -29,59 -34,59 -39,58 -44,58 -50,58 -54,58 -59,57 -65,56 -69,56 -74,56 -80,54 -84,55 -88,54 -94,53 -98,52 -102,52 -108,50 -111,50 -116,50 -121,48 -124,48 -129,46 -132,46 -137,44 -141,44 -144,42 -148,42 -152,40 -155,40 -159,38 -162,37 -165,36 -168,34 -171,34 -174,32 -177,30 -180,30 -182,28 -185,27 -186,26 -189,24 -191,22 -194,22 -194,20 -197,18 -198,17 -200,16 -200,14 -203,13 -203,11 -204,10 -205,8 -205,7 -206,5 -206,4 -207,2 -207,1 v -1 l -207,-1 -206,-2 -207,-4 -206,-5 -205,-7 -205,-8 -204,-10 -203,-11 -202,-13 -201,-14 -200,-15 -198,-18 -196,-18 -195,-20 -193,-21 -191,-23 -189,-24 -187,-26 -184,-26 -182,-29 -180,-29 -177,-31 -174,-32 -171,-33 -168,-35 -166,-36 -162,-37 -158,-38 -155,-39 -152,-40 -148,-42 -145,-43 -140,-43 -137,-45 -133,-45 -128,-47 -125,-47 -120,-49 -116,-49 -112,-50 -107,-51 -103,-51 -98,-53 -93,-53 -89,-53 -84,-55 -79,-55 -75,-55 -69,-56 -65,-57 -59,-57 -55,-57 -49,-58 -44,-58 -39,-58 -34,-59 -29,-59 -24,-59 -18,-59 -13,-59 -8,-60 -3,-59 z m 0,-2347 z m 16330,4695 z"
           style="fill:#ffffff;stroke:none" />
        <path
           id="path245"
           d="m 43676,36290 v 0 l 3,-59 7,-60 14,-59 18,-59 23,-59 29,-59 34,-59 39,-58 44,-58 50,-58 54,-58 59,-57 65,-56 69,-56 74,-56 80,-54 84,-55 88,-54 94,-53 98,-52 102,-52 108,-50 111,-50 116,-50 121,-48 124,-48 129,-46 132,-46 137,-44 141,-44 144,-42 148,-42 152,-40 155,-40 159,-38 162,-37 165,-36 168,-34 171,-34 174,-32 177,-30 180,-30 182,-28 185,-27 186,-26 189,-24 191,-22 194,-22 194,-20 197,-18 198,-17 200,-16 200,-14 203,-13 203,-11 204,-10 205,-8 205,-7 206,-5 206,-4 207,-2 207,-1 v 0 l 207,1 206,2 207,4 206,5 205,7 205,8 204,10 203,11 202,13 201,14 200,16 198,17 197,18 194,20 193,21 192,23 189,24 186,26 185,27 182,28 180,29 176,31 175,32 171,34 168,34 165,36 162,37 159,38 155,39 152,41 148,41 144,43 141,44 137,44 132,46 129,46 124,48 121,48 116,49 111,51 108,50 102,52 98,52 94,53 88,54 84,54 80,55 74,56 69,56 65,56 59,57 54,58 50,57 44,59 39,58 34,59 29,58 23,60 18,59 14,59 7,60 3,59 v 0 l -3,59 -7,60 -14,59 -18,59 -23,59 -29,59 -34,59 -39,58 -44,58 -50,58 -54,58 -59,57 -65,56 -69,56 -74,56 -80,54 -84,55 -88,54 -94,53 -98,52 -102,52 -108,50 -111,50 -116,50 -121,48 -124,48 -129,46 -132,46 -137,44 -141,44 -144,42 -148,42 -152,40 -155,40 -159,38 -162,37 -165,36 -168,34 -171,34 -174,32 -177,30 -180,30 -182,28 -185,27 -186,26 -189,24 -191,22 -194,22 -194,20 -197,18 -198,17 -200,16 -200,14 -203,13 -203,11 -204,10 -205,8 -205,7 -206,5 -206,4 -207,2 -207,1 v -1 l -207,-1 -206,-2 -207,-4 -206,-5 -205,-7 -205,-8 -204,-10 -203,-11 -202,-13 -201,-14 -200,-15 -198,-18 -196,-18 -195,-20 -193,-21 -191,-23 -189,-24 -187,-26 -184,-26 -182,-29 -180,-29 -177,-31 -174,-32 -171,-33 -168,-35 -166,-36 -162,-37 -158,-38 -155,-39 -152,-40 -148,-42 -145,-43 -140,-43 -137,-45 -133,-45 -128,-47 -125,-47 -120,-49 -116,-49 -112,-50 -107,-51 -103,-51 -98,-53 -93,-53 -89,-53 -84,-55 -79,-55 -75,-55 -69,-56 -65,-57 -59,-57 -55,-57 -49,-58 -44,-58 -39,-58 -34,-59 -29,-59 -24,-59 -18,-59 -13,-59 -8,-60 -3,-59 z"
           style="fill:none;stroke:#000000;stroke-width:71;stroke-linejoin:round" />
        <text
           id="text4693-5-0-0"
           y="36845.207"
           x="51795.742"
           style="font-style:normal;font-variant:normal;font-weight:bold;font-stretch:normal;font-size:1454.01782227px;line-height:125%;font-family:Ubuntu;-inkscape-font-specification:'Ubuntu Bold';font-variant-ligatures:normal;font-variant-caps:normal;font-variant-numeric:normal;font-feature-settings:normal;text-align:start;letter-spacing:0px;word-spacing:0px;writing-mode:lr-tb;text-anchor:start;fill:#000000;fill-opacity:1;stroke:none;stroke-width:36.35044861px;stroke-linecap:butt;stroke-linejoin:miter;stroke-opacity:1"
           xml:space="preserve"><tspan
             id="tspan6225-8"
             style="font-style:normal;font-variant:normal;font-weight:normal;font-stretch:normal;line-height:0%;font-family:Ubuntu;-inkscape-font-specification:Ubuntu;text-align:center;text-anchor:middle;fill:#000000;fill-opacity:1;stroke-width:36.35044861px"
             y="36845.207"
             x="51795.742">Fault Model</tspan></text>
      </g>
    </g>
    <g
       transform="matrix(0.00727868,0,0,0.00727868,-208.98906,-174.00403)"
       id="g281"
       class="com.sun.star.drawing.CustomShape"
       style="">
      <g
         id="id7">
        <rect
           id="rect262"
           height="4768"
           width="16404"
           y="33907"
           x="23026"
           class="BoundingBox"
           style="fill:none;stroke:none" />
        <path
           id="path264"
           d="m 23063,36290 v 0 l 3,-59 7,-60 14,-59 18,-59 23,-59 29,-59 34,-59 39,-58 44,-58 50,-58 54,-58 59,-57 65,-56 69,-56 74,-56 80,-54 84,-55 88,-54 94,-53 98,-52 102,-52 108,-50 111,-50 116,-50 121,-48 124,-48 129,-46 132,-46 137,-44 141,-44 144,-42 148,-42 152,-40 155,-40 159,-38 162,-37 165,-36 168,-34 171,-34 174,-32 177,-30 180,-30 182,-28 185,-27 186,-26 189,-24 191,-22 194,-22 194,-20 197,-18 198,-17 200,-16 200,-14 203,-13 203,-11 204,-10 205,-8 205,-7 206,-5 206,-4 207,-2 207,-1 v 0 l 207,1 206,2 207,4 206,5 205,7 205,8 204,10 203,11 202,13 201,14 200,16 198,17 197,18 194,20 193,21 192,23 189,24 186,26 185,27 182,28 180,29 176,31 175,32 171,34 168,34 165,36 162,37 159,38 155,39 152,41 148,41 144,43 141,44 137,44 132,46 129,46 124,48 121,48 116,49 111,51 108,50 102,52 98,52 94,53 88,54 84,54 80,55 74,56 69,56 65,56 59,57 54,58 50,57 44,59 39,58 34,59 29,58 23,60 18,59 14,59 7,60 3,59 v 0 l -3,59 -7,60 -14,59 -18,59 -23,59 -29,59 -34,59 -39,58 -44,58 -50,58 -54,58 -59,57 -65,56 -69,56 -74,56 -80,54 -84,55 -88,54 -94,53 -98,52 -102,52 -108,50 -111,50 -116,50 -121,48 -124,48 -129,46 -132,46 -137,44 -141,44 -144,42 -148,42 -152,40 -155,40 -159,38 -162,37 -165,36 -168,34 -171,34 -174,32 -177,30 -180,30 -182,28 -185,27 -186,26 -189,24 -191,22 -194,22 -194,20 -197,18 -198,17 -200,16 -200,14 -203,13 -203,11 -204,10 -205,8 -205,7 -206,5 -206,4 -207,2 -207,1 v -1 l -207,-1 -206,-2 -207,-4 -206,-5 -205,-7 -205,-8 -204,-10 -203,-11 -202,-13 -201,-14 -200,-15 -198,-18 -196,-18 -195,-20 -193,-21 -191,-23 -189,-24 -187,-26 -184,-26 -182,-29 -180,-29 -177,-31 -174,-32 -171,-33 -168,-35 -166,-36 -162,-37 -158,-38 -155,-39 -152,-40 -148,-42 -145,-43 -140,-43 -137,-45 -133,-45 -128,-47 -125,-47 -120,-49 -116,-49 -112,-50 -107,-51 -103,-51 -98,-53 -93,-53 -89,-53 -84,-55 -79,-55 -75,-55 -69,-56 -65,-57 -59,-57 -55,-57 -49,-58 -44,-58 -39,-58 -34,-59 -29,-59 -24,-59 -18,-59 -13,-59 -8,-60 -3,-59 z m 0,-2347 z m 16330,4695 z"
           style="fill:#ffffff;stroke:none" />
        <path
           id="path266"
           d="m 23063,36290 v 0 l 3,-59 7,-60 14,-59 18,-59 23,-59 29,-59 34,-59 39,-58 44,-58 50,-58 54,-58 59,-57 65,-56 69,-56 74,-56 80,-54 84,-55 88,-54 94,-53 98,-52 102,-52 108,-50 111,-50 116,-50 121,-48 124,-48 129,-46 132,-46 137,-44 141,-44 144,-42 148,-42 152,-40 155,-40 159,-38 162,-37 165,-36 168,-34 171,-34 174,-32 177,-30 180,-30 182,-28 185,-27 186,-26 189,-24 191,-22 194,-22 194,-20 197,-18 198,-17 200,-16 200,-14 203,-13 203,-11 204,-10 205,-8 205,-7 206,-5 206,-4 207,-2 207,-1 v 0 l 207,1 206,2 207,4 206,5 205,7 205,8 204,10 203,11 202,13 201,14 200,16 198,17 197,18 194,20 193,21 192,23 189,24 186,26 185,27 182,28 180,29 176,31 175,32 171,34 168,34 165,36 162,37 159,38 155,39 152,41 148,41 144,43 141,44 137,44 132,46 129,46 124,48 121,48 116,49 111,51 108,50 102,52 98,52 94,53 88,54 84,54 80,55 74,56 69,56 65,56 59,57 54,58 50,57 44,59 39,58 34,59 29,58 23,60 18,59 14,59 7,60 3,59 v 0 l -3,59 -7,60 -14,59 -18,59 -23,59 -29,59 -34,59 -39,58 -44,58 -50,58 -54,58 -59,57 -65,56 -69,56 -74,56 -80,54 -84,55 -88,54 -94,53 -98,52 -102,52 -108,50 -111,50 -116,50 -121,48 -124,48 -129,46 -132,46 -137,44 -141,44 -144,42 -148,42 -152,40 -155,40 -159,38 -162,37 -165,36 -168,34 -171,34 -174,32 -177,30 -180,30 -182,28 -185,27 -186,26 -189,24 -191,22 -194,22 -194,20 -197,18 -198,17 -200,16 -200,14 -203,13 -203,11 -204,10 -205,8 -205,7 -206,5 -206,4 -207,2 -207,1 v -1 l -207,-1 -206,-2 -207,-4 -206,-5 -205,-7 -205,-8 -204,-10 -203,-11 -202,-13 -201,-14 -200,-15 -198,-18 -196,-18 -195,-20 -193,-21 -191,-23 -189,-24 -187,-26 -184,-26 -182,-29 -180,-29 -177,-31 -174,-32 -171,-33 -168,-35 -166,-36 -162,-37 -158,-38 -155,-39 -152,-40 -148,-42 -145,-43 -140,-43 -137,-45 -133,-45 -128,-47 -125,-47 -120,-49 -116,-49 -112,-50 -107,-51 -103,-51 -98,-53 -93,-53 -89,-53 -84,-55 -79,-55 -75,-55 -69,-56 -65,-57 -59,-57 -55,-57 -49,-58 -44,-58 -39,-58 -34,-59 -29,-59 -24,-59 -18,-59 -13,-59 -8,-60 -3,-59 z"
           style="fill:none;stroke:#000000;stroke-width:71;stroke-linejoin:round" />
      </g>
      <text
         id="text4693-5-0-8"
         y="35936.945"
         x="31177.904"
         style="font-style:normal;font-variant:normal;font-weight:bold;font-stretch:normal;font-size:1454.01782227px;line-height:125%;font-family:Ubuntu;-inkscape-font-specification:'Ubuntu Bold';font-variant-ligatures:normal;font-variant-caps:normal;font-variant-numeric:normal;font-feature-settings:normal;text-align:start;letter-spacing:0px;word-spacing:0px;writing-mode:lr-tb;text-anchor:start;fill:#000000;fill-opacity:1;stroke:none;stroke-width:36.35044861px;stroke-linecap:butt;stroke-linejoin:miter;stroke-opacity:1"
         xml:space="preserve"><tspan
           id="tspan5754-6-4"
           style="font-style:normal;font-variant:normal;font-weight:normal;font-stretch:normal;line-height:0%;font-family:Ubuntu;-inkscape-font-specification:Ubuntu;text-align:center;text-anchor:middle;fill:#000000;fill-opacity:1;stroke-width:36.35044861px"
           y="35936.945"
           x="31177.904">Dependability</tspan><tspan
           id="tspan6225-9"
           style="font-style:normal;font-variant:normal;font-weight:normal;font-stretch:normal;line-height:0%;font-family:Ubuntu;-inkscape-font-specification:Ubuntu;text-align:center;text-anchor:middle;fill:#000000;fill-opacity:1;stroke-width:36.35044861px"
           y="37754.469"
           x="31177.904">Model</tspan></text>
    </g>
    <g
       transform="matrix(0.00727868,0,0,0.00727868,-208.98906,-174.00403)"
       id="g292"
       class="com.sun.star.drawing.CustomShape"
       style="">
      <g
         id="id8">
        <rect
           id="rect283"
           height="219"
           width="4355"
           y="36183"
           x="39359"
           class="BoundingBox"
           style="fill:none;stroke:none" />
        <path
           id="path285"
           d="m 39594,36290 3884,4"
           style="fill:none;stroke:#000000;stroke-width:71;stroke-linejoin:round" />
        <path
           id="path287"
           d="m 39395,36290 213,-106 v 213 z"
           style="fill:#000000;stroke:none" />
        <path
           id="path289"
           d="m 43677,36294 -213,106 v -213 z"
           style="fill:#000000;stroke:none" />
      </g>
    </g>
    <g
       transform="matrix(0.00727868,0,0,0.00727868,-208.98906,-174.00403)"
       id="g309"
       class="com.sun.star.drawing.CustomShape"
       style="">
      <g
         id="id9">
        <rect
           id="rect294"
           height="9630"
           width="33981"
           y="42552"
           x="22802"
           class="BoundingBox"
           style="fill:none;stroke:none" />
        <path
           id="path296"
           d="M 39792,52145 H 22838 v -9557 h 33908 v 9557 z"
           style="fill:#f2f2f2;stroke:none" />
        <path
           id="path298"
           d="M 39792,52145 H 22838 v -9557 h 33908 v 9557 z"
           style="fill:none;stroke:#000000;stroke-width:71;stroke-linejoin:round" />
        <text
           id="text306"
           class="TextShape">
          <tspan
             id="tspan304"
             font-weight="700"
             font-size="1411px"
             class="TextParagraph"
             style="font-style:normal;font-variant:normal;font-weight:bold;font-stretch:normal;font-size:1454.01757812px;font-family:Ubuntu;-inkscape-font-specification:'Ubuntu, Bold';font-variant-ligatures:normal;font-variant-caps:normal;font-variant-numeric:normal;font-feature-settings:normal;text-align:start;writing-mode:lr-tb;text-anchor:start;fill:url(#linearGradient9593)">
            <tspan
               style="font-style:normal;font-variant:normal;font-weight:bold;font-stretch:normal;font-size:1454.01757812px;font-family:Ubuntu;-inkscape-font-specification:'Ubuntu, Bold';font-variant-ligatures:normal;font-variant-caps:normal;font-variant-numeric:normal;font-feature-settings:normal;text-align:start;writing-mode:lr-tb;text-anchor:start;fill:url(#linearGradient9593);stroke:none"
               id="tspan302"
               y="51739"
               x="35542"
               class="TextPosition">Simulation</tspan>
          </tspan>
        </text>
      </g>
    </g>
    <g
       transform="matrix(0.00727868,0,0,0.00727868,-208.98906,-174.00403)"
       id="g350"
       class="Group"
       style="">
      <g
         id="g318"
         class="com.sun.star.drawing.CustomShape">
        <g
           id="id10">
          <rect
             id="rect311"
             height="5762"
             width="11301"
             y="47194"
             x="5956"
             class="BoundingBox"
             style="fill:none;stroke:none" />
          <path
             id="path313"
             d="M 11606,52919 H 5992 v -5689 h 11228 v 5689 z"
             style="fill:#f2f2f2;stroke:none" />
          <path
             id="path315"
             d="M 11606,52919 H 5992 v -5689 h 11228 v 5689 z"
             style="fill:none;stroke:#000000;stroke-width:71;stroke-linejoin:round" />
        </g>
      </g>
      <g
         id="g327"
         class="com.sun.star.drawing.CustomShape">
        <g
           id="id11">
          <rect
             id="rect320"
             height="5763"
             width="11300"
             y="45964"
             x="4725"
             class="BoundingBox"
             style="fill:none;stroke:none" />
          <path
             id="path322"
             d="M 10375,51690 H 4761 v -5690 h 11227 v 5690 z"
             style="fill:#f2f2f2;stroke:none" />
          <path
             id="path324"
             d="M 10375,51690 H 4761 v -5690 h 11227 v 5690 z"
             style="fill:none;stroke:#000000;stroke-width:71;stroke-linejoin:round" />
        </g>
      </g>
      <g
         id="g348"
         class="com.sun.star.drawing.CustomShape">
        <g
           id="id12">
          <rect
             id="rect329"
             height="5763"
             width="11301"
             y="44729"
             x="3495"
             class="BoundingBox"
             style="fill:none;stroke:none" />
          <path
             id="path331"
             d="M 9145,50455 H 3531 v -5690 h 11228 v 5690 z"
             style="fill:#f2f2f2;stroke:none" />
          <path
             id="path333"
             d="M 9145,50455 H 3531 v -5690 h 11228 v 5690 z"
             style="fill:none;stroke:#000000;stroke-width:71;stroke-linejoin:round" />
          <flowRoot
             transform="matrix(36.350455,0,0,36.350455,3495.0005,32819)"
             style="font-style:normal;font-variant:normal;font-weight:normal;font-stretch:normal;font-size:60px;line-height:125%;font-family:Ubuntu;-inkscape-font-specification:Ubuntu;font-variant-ligatures:normal;font-variant-caps:normal;font-variant-numeric:normal;font-feature-settings:normal;text-align:start;letter-spacing:0px;word-spacing:0px;writing-mode:lr-tb;text-anchor:start;fill:#000000;fill-opacity:1;stroke:none;stroke-width:1px;stroke-linecap:butt;stroke-linejoin:miter;stroke-opacity:1"
             id="flowRoot4667"
             xml:space="preserve"><flowRegion
               id="flowRegion4669"><rect
                 y="572.18573"
                 x="115"
                 height="95"
                 width="105"
                 id="rect4671" /></flowRegion><flowPara
               id="flowPara4673">Fault Injection Experiments</flowPara></flowRoot>        </g>
      </g>
      <text
         id="text4693-5"
         y="47131.402"
         x="9136.9346"
         style="font-style:normal;font-variant:normal;font-weight:bold;font-stretch:normal;font-size:1454.01794434px;line-height:125%;font-family:Ubuntu;-inkscape-font-specification:'Ubuntu Bold';font-variant-ligatures:normal;font-variant-caps:normal;font-variant-numeric:normal;font-feature-settings:normal;text-align:start;letter-spacing:0px;word-spacing:0px;writing-mode:lr-tb;text-anchor:start;fill:#000000;fill-opacity:1;stroke:none;stroke-width:36.35044861px;stroke-linecap:butt;stroke-linejoin:miter;stroke-opacity:1"
         xml:space="preserve"><tspan
           style="font-style:normal;font-variant:normal;font-weight:normal;font-stretch:normal;line-height:0%;font-family:Ubuntu;-inkscape-font-specification:Ubuntu;text-align:center;text-anchor:middle;fill:#000000;fill-opacity:1;stroke-width:36.35044861px"
           y="47131.402"
           x="9136.9346"
           id="tspan4691-5">Fault Injection</tspan><tspan
           id="tspan5754"
           style="font-style:normal;font-variant:normal;font-weight:normal;font-stretch:normal;line-height:0%;font-family:Ubuntu;-inkscape-font-specification:Ubuntu;text-align:center;text-anchor:middle;fill:#000000;fill-opacity:1;stroke-width:36.35044861px"
           y="48948.926"
           x="9136.9346">Experiments</tspan></text>
    </g>
    <g
       transform="matrix(0.00727868,0,0,0.00727868,-208.98906,-174.00403)"
       id="g377"
       class="com.sun.star.drawing.CustomShape"
       style="">
      <g
         id="id13">
        <rect
           id="rect352"
           height="5762"
           width="12011"
           y="44859"
           x="68423"
           class="BoundingBox"
           style="fill:none;stroke:none" />
        <path
           id="path354"
           d="m 68459,44895 h 11938 v 4740 l -949,949 H 68459 Z m 0,0 z m 11938,5689 z"
           style="fill:#f2f2f2;stroke:none" />
        <path
           id="path356"
           d="m 79448,50584 190,-759 759,-190 z M 68459,44895 Z m 11938,5689 z"
           style="fill:#c1c1c1;stroke:none" />
        <path
           id="path358"
           d="m 79448,50584 190,-759 759,-190 -949,949 H 68459 v -5689 h 11938 v 4740"
           style="fill:none;stroke:#000000;stroke-width:71;stroke-linejoin:round" />
        <path
           id="path360"
           d="M 68459,44895 Z"
           style="fill:none;stroke:#000000;stroke-width:71;stroke-linejoin:round" />
        <path
           id="path362"
           d="M 80397,50584 Z"
           style="fill:none;stroke:#000000;stroke-width:71;stroke-linejoin:round" />
        <flowRoot
           transform="matrix(36.350439,0,0,36.350439,41414.169,-11258.395)"
           style="font-style:normal;font-variant:normal;font-weight:normal;font-stretch:normal;font-size:26.66666603px;line-height:125%;font-family:Ubuntu;-inkscape-font-specification:'Ubuntu, Normal';font-variant-ligatures:normal;font-variant-caps:normal;font-variant-numeric:normal;font-feature-settings:normal;text-align:start;letter-spacing:0px;word-spacing:0px;writing-mode:lr-tb;text-anchor:start;display:inline;fill:#000000;fill-opacity:1;stroke:none;stroke-width:1px;stroke-linecap:butt;stroke-linejoin:miter;stroke-opacity:1"
           id="flowRoot9479-1"
           xml:space="preserve"><flowRegion
             style="font-style:normal;font-variant:normal;font-weight:normal;font-stretch:normal;font-size:26.66666603px;font-family:Ubuntu;-inkscape-font-specification:'Ubuntu, Normal';font-variant-ligatures:normal;font-variant-caps:normal;font-variant-numeric:normal;font-feature-settings:normal;text-align:start;writing-mode:lr-tb;text-anchor:start"
             id="flowRegion9481-6"><rect
               style="font-style:normal;font-variant:normal;font-weight:normal;font-stretch:normal;font-size:26.66666603px;font-family:Ubuntu;-inkscape-font-specification:'Ubuntu, Normal';font-variant-ligatures:normal;font-variant-caps:normal;font-variant-numeric:normal;font-feature-settings:normal;text-align:start;writing-mode:lr-tb;text-anchor:start"
               y="1591.1812"
               x="755.90552"
               height="113.38577"
               width="302.36218"
               id="rect9483-0" /></flowRegion><flowPara
             style="font-style:normal;font-variant:normal;font-weight:normal;font-stretch:normal;font-size:40px;font-family:Ubuntu;-inkscape-font-specification:'Ubuntu, Normal';font-variant-ligatures:normal;font-variant-caps:normal;font-variant-numeric:normal;font-feature-settings:normal;text-align:center;writing-mode:lr-tb;text-anchor:middle;fill:url(#linearGradient9593)"
             id="flowPara9485-8" /></flowRoot>      </g>
      <text
         id="text4693-5-0"
         y="47386.672"
         x="74407.641"
         style="font-style:normal;font-variant:normal;font-weight:bold;font-stretch:normal;font-size:1454.01782227px;line-height:125%;font-family:Ubuntu;-inkscape-font-specification:'Ubuntu Bold';font-variant-ligatures:normal;font-variant-caps:normal;font-variant-numeric:normal;font-feature-settings:normal;text-align:start;letter-spacing:0px;word-spacing:0px;writing-mode:lr-tb;text-anchor:start;fill:#000000;fill-opacity:1;stroke:none;stroke-width:36.35044861px;stroke-linecap:butt;stroke-linejoin:miter;stroke-opacity:1"
         xml:space="preserve"><tspan
           id="tspan5754-6"
           style="font-style:normal;font-variant:normal;font-weight:normal;font-stretch:normal;line-height:0%;font-family:Ubuntu;-inkscape-font-specification:Ubuntu;text-align:center;text-anchor:middle;fill:#000000;fill-opacity:1;stroke-width:36.35044861px"
           y="47386.672"
           x="74407.641">Dependability</tspan><tspan
           id="tspan6225"
           style="font-style:normal;font-variant:normal;font-weight:normal;font-stretch:normal;line-height:0%;font-family:Ubuntu;-inkscape-font-specification:Ubuntu;text-align:center;text-anchor:middle;fill:#000000;fill-opacity:1;stroke-width:36.35044861px"
           y="49204.195"
           x="74407.641">Measurements</tspan></text>
    </g>
    <g
       transform="matrix(0.00727868,0,0,0.00727868,-208.98906,-174.00403)"
       id="g386"
       class="com.sun.star.drawing.ConnectorShape"
       style="">
      <g
         id="id14">
        <rect
           id="rect379"
           height="8676"
           width="13490"
           y="36090"
           x="9775"
           class="BoundingBox"
           style="fill:none;stroke:none" />
        <path
           id="path381"
           d="M 23064,36290 H 10375 v 6755"
           style="fill:none;stroke:url(#linearGradient9607);stroke-width:400;stroke-linejoin:round" />
        <path
           id="path383"
           d="m 10375,44765 600,-1800 H 9775 Z"
           style="fill:#c65301;stroke:none" />
      </g>
    </g>
    <g
       transform="matrix(0.00727868,0,0,0.00727868,-208.98906,-174.00403)"
       id="g395"
       class="com.sun.star.drawing.LineShape"
       style="">
      <g
         id="id15">
        <rect
           id="rect388"
           height="1201"
           width="9547"
           y="47851"
           x="14559"
           class="BoundingBox"
           style="fill:none;stroke:none" />
        <path
           id="path390"
           d="m 14759,48451 h 7626"
           style="fill:none;stroke:#c65301;stroke-width:400;stroke-linejoin:round" />
        <path
           id="path392"
           d="m 24105,48451 -1800,-600 v 1200 z"
           style="fill:#c65301;stroke:none" />
      </g>
    </g>
    <g
       transform="matrix(0.00727868,0,0,0.00727868,-208.98906,-174.00403)"
       id="g404"
       class="com.sun.star.drawing.ConnectorShape"
       style="">
      <g
         id="id16">
        <rect
           id="rect397"
           height="9404"
           width="12774"
           y="35692"
           x="61855"
           class="BoundingBox"
           style="fill:none;stroke:none" />
        <path
           id="path399"
           d="M 74428,44895 V 36292 H 63575"
           style="fill:none;stroke:#c65301;stroke-width:400;stroke-linejoin:round" />
        <path
           id="path401"
           d="m 61855,36292 1800,600 v -1200 z"
           style="fill:#c65301;stroke:none" />
      </g>
    </g>
    <g
       style=""
       transform="matrix(0.00727868,0,0,0.00727868,-208.98906,-174.00403)"
       id="g421"
       class="com.sun.star.drawing.CustomShape">
      <g
         id="id17">
        <rect
           id="rect406"
           height="4678"
           width="26761"
           y="45028"
           x="26412"
           class="BoundingBox"
           style="fill:none;stroke:none" />
        <path
           id="path408"
           d="M 39792,49669 H 26448 v -4605 h 26688 v 4605 z"
           style="fill:url(#linearGradient4856);stroke:none" />
        <path
           id="path410"
           d="M 39792,49669 H 26448 v -4605 h 26688 v 4605 z"
           style="fill:none;stroke:#000000;stroke-width:71;stroke-linejoin:round" />
        <flowRoot
           style="fill:black;stroke:none;stroke-opacity:1;stroke-width:1px;stroke-linejoin:miter;stroke-linecap:butt;fill-opacity:1;font-family:Ubuntu;font-style:normal;font-weight:bold;font-size:40px;line-height:0%;letter-spacing:0px;word-spacing:0px;-inkscape-font-specification:'Ubuntu Bold';font-stretch:normal;font-variant:normal;text-anchor:start;text-align:start;writing-mode:lr;font-variant-ligatures:normal;font-variant-caps:normal;font-variant-numeric:normal;font-feature-settings:normal;"
           id="flowRoot4683"
           xml:space="preserve"><flowRegion
             style="-inkscape-font-specification:'Ubuntu Bold';font-family:Ubuntu;font-weight:bold;font-style:normal;font-stretch:normal;font-variant:normal;font-size:40px;line-height:0%;"
             id="flowRegion4685"><rect
               style="-inkscape-font-specification:'Ubuntu Bold';font-family:Ubuntu;font-weight:bold;font-style:normal;font-stretch:normal;font-variant:normal;font-size:40px;line-height:0%;"
               y="707.18573"
               x="740"
               height="100"
               width="320"
               id="rect4687" /></flowRegion><flowPara
             id="flowPara4689"></flowPara></flowRoot>        <text
           id="text4693"
           y="47920.48"
           x="29383.514"
           style="font-style:normal;font-variant:normal;font-weight:bold;font-stretch:normal;font-size:1454.01818848px;line-height:125%;font-family:Ubuntu;-inkscape-font-specification:'Ubuntu Bold';font-variant-ligatures:normal;font-variant-caps:normal;font-variant-numeric:normal;font-feature-settings:normal;text-align:start;letter-spacing:0px;word-spacing:0px;writing-mode:lr-tb;text-anchor:start;fill:#000000;fill-opacity:1;stroke:none;stroke-width:36.35045624px;stroke-linecap:butt;stroke-linejoin:miter;stroke-opacity:1"
           xml:space="preserve"><tspan
             style="font-style:normal;font-variant:normal;font-weight:bold;font-stretch:normal;line-height:0%;font-family:Ubuntu;-inkscape-font-specification:'Ubuntu Bold';fill:#ffffff;fill-opacity:1;stroke-width:36.35045624px"
             y="47920.48"
             x="29383.514"
             id="tspan4691">Software under Consideration</tspan></text>
      </g>
    </g>
    <g
       transform="matrix(0.00727868,0,0,0.00727868,-208.98906,-174.00403)"
       id="g430"
       class="com.sun.star.drawing.LineShape"
       style="">
      <g
         id="id18">
        <rect
           id="rect423"
           height="5103"
           width="1201"
           y="38637"
           x="52461"
           class="BoundingBox"
           style="fill:none;stroke:none" />
        <path
           id="path425"
           d="M 53061,43539 V 40357"
           style="fill:none;stroke:#c65301;stroke-width:400;stroke-linejoin:round" />
        <path
           id="path427"
           d="m 53061,38637 -600,1800 h 1200 z"
           style="fill:#c65301;stroke:none" />
      </g>
    </g>
    <g
       transform="matrix(0.00727868,0,0,0.00727868,-208.98906,-174.00403)"
       id="g439"
       class="com.sun.star.drawing.LineShape"
       style="">
      <g
         id="id19">
        <rect
           id="rect432"
           height="1201"
           width="12849"
           y="46073"
           x="14559"
           class="BoundingBox"
           style="fill:none;stroke:none" />
        <path
           id="path434"
           d="M 14759,46673 H 25687"
           style="fill:none;stroke:#c65301;stroke-width:400;stroke-linejoin:round" />
        <path
           id="path436"
           d="m 27407,46673 -1800,-600 v 1200 z"
           style="fill:#c65301;stroke:none" />
      </g>
    </g>
    <g
       transform="matrix(0.00727868,0,0,0.00727868,-208.98906,-174.00403)"
       id="g448"
       class="com.sun.star.drawing.LineShape"
       style="">
      <g
         id="id20">
        <rect
           id="rect441"
           height="7389"
           width="1201"
           y="38637"
           x="49921"
           class="BoundingBox"
           style="fill:none;stroke:none" />
        <path
           id="path443"
           d="M 50521,45825 V 40357"
           style="fill:none;stroke:#c65301;stroke-width:400;stroke-linejoin:round" />
        <path
           id="path445"
           d="m 50521,38637 -600,1800 h 1200 z"
           style="fill:#c65301;stroke:none" />
      </g>
    </g>
    <g
       transform="matrix(0.00727868,0,0,0.00727868,-208.98906,-174.00403)"
       id="g457"
       class="com.sun.star.drawing.LineShape"
       style="">
      <g
         id="id21">
        <rect
           id="rect450"
           height="7389"
           width="1201"
           y="38637"
           x="30617"
           class="BoundingBox"
           style="fill:none;stroke:none" />
        <path
           id="path452"
           d="M 31217,45825 V 40357"
           style="fill:none;stroke:#c65301;stroke-width:400;stroke-linejoin:round" />
        <path
           id="path454"
           d="m 31217,38637 -600,1800 h 1200 z"
           style="fill:#c65301;stroke:none" />
      </g>
    </g>
    <g
       transform="matrix(0.00727868,0,0,0.00727868,-208.98906,-174.00403)"
       id="g466"
       class="com.sun.star.drawing.LineShape"
       style="">
      <g
         id="id22">
        <rect
           id="rect459"
           height="1201"
           width="16108"
           y="46073"
           x="52353"
           class="BoundingBox"
           style="fill:none;stroke:none" />
        <path
           id="path461"
           d="M 52553,46673 H 66740"
           style="fill:none;stroke:#c65301;stroke-width:400;stroke-linejoin:round" />
        <path
           id="path463"
           d="m 68460,46673 -1800,-600 v 1200 z"
           style="fill:#c65301;stroke:none" />
      </g>
    </g>
    <g
       transform="matrix(0.00727868,0,0,0.00727868,-208.98906,-174.00403)"
       id="g475"
       class="com.sun.star.drawing.LineShape"
       style="">
      <g
         id="id23">
        <rect
           id="rect468"
           height="1201"
           width="12552"
           y="47851"
           x="55909"
           class="BoundingBox"
           style="fill:none;stroke:none" />
        <path
           id="path470"
           d="M 56109,48451 H 66740"
           style="fill:none;stroke:#c65301;stroke-width:400;stroke-linejoin:round" />
        <path
           id="path472"
           d="m 68460,48451 -1800,-600 v 1200 z"
           style="fill:#c65301;stroke:none" />
      </g>
    </g>
    <flowRoot
       transform="matrix(0.26458333,0,0,0.26458333,-183.55007,64.874969)"
       style="font-style:normal;font-variant:normal;font-weight:normal;font-stretch:normal;font-size:40px;line-height:125%;font-family:Ubuntu;-inkscape-font-specification:'Ubuntu, Normal';font-variant-ligatures:normal;font-variant-caps:normal;font-variant-numeric:normal;font-feature-settings:normal;text-align:start;letter-spacing:0px;word-spacing:0px;writing-mode:lr-tb;text-anchor:start;fill:#000000;fill-opacity:1;stroke:none;stroke-width:1px;stroke-linecap:butt;stroke-linejoin:miter;stroke-opacity:1"
       id="flowRoot4699"
       xml:space="preserve"><flowRegion
         id="flowRegion4701"><rect
           y="-132.81429"
           x="640"
           height="90"
           width="160"
           id="rect4703" /></flowRegion><flowPara
         id="flowPara4705">Dependability Model</flowPara></flowRoot>  </g>
</svg>
