digraph rail2x_usecase1 {
  rankdir=LR
  layout=neato

  fontsize=14
  edge [fontsize=14]
  node [pin=true fontsize=14]

  rsu [
    label="road-\nside\nunit"
    shape=record
    height=.05
    width=.05
    pos="2.75,-.5"
  ]

  node [
    label=""
    shape=circle
    style=dashed
    height=2
    width=2
  ]

  obu_range [pos=".66,0"]
  rsu_range [pos="2.75,-.5" xlabel="communication\nrange"]

  train [
    label="train with on-board unit"
    style=solid
    color=black
    fontcolor=black
    zindex=1
    shape=rarrow
    height=.5
    width=2.5
    pos="0,0"
  ]

  node [style=invis shape=point height=0 width=0]
  track_start [pos="-1.25,0"]
  track_mid [pos="2.75,0"]
  track_2_start [pos="3.75,.25"]
  track_2_end [pos="4,.25"]
  track_end [pos="4,0"]

  edge [color="black:invis:black" arrowhead=none]
  track_start -> train -> track_mid -> track_end
  track_mid -> track_2_start -> track_2_end

}
