digraph G {
  charset = "utf-8"
  rankdir = LR
  forcelabels = true
  splines = true
  nodesep = 0
  esep = 0
  ranksep = 1.5
  bgcolor = transparent
  sep = 0

  edge [tailport=e headport=w arrowhead=none]

  node [shape=box margin=0.05 penwidth=0]
  dependability

  attributes
  threats
  means

  dependability -> attributes
  dependability -> means
  dependability -> threats

  attributes -> reliability
  attributes -> availability    -> security
  attributes -> confidentiality -> security
  attributes -> integrity       -> security
  attributes -> safety
  attributes -> maintainability

  means -> { prevention [label="fault prevention"] }
  means -> { forecasting [label="fault forecasting"] }
  means -> { removal [label="fault removal"] }
  means -> { tolerance [label="fault tolerance"] }

  threats -> faults
  threats -> errors
  threats -> failures


}
